.............
----------------------------------------------------------------------
Ran 13 tests in 0.001s

OK
Name               Stmts   Miss Branch BrPart  Cover   Missing
--------------------------------------------------------------
Diplomacy.py          76      0     42      0   100%
TestDiplomacy.py      57      0      2      0   100%
--------------------------------------------------------------
TOTAL                133      0     44      0   100%
